stype Design
…
dt <- tibble(
  y1 = v_binary(as.logical(rbinom(n, 1, 0.25)), context = make_context("outcome")),
  y2 = v_event_time(runif(n, 1, 100), context = make_context("outcome")),
  y3 = v_continuous(rnorm(n), context = make_context("outcome")),
  !!! covariates
)

dt
#> # A tibble: 100 x 13
#>       y1    y2     y3    x1    x2    x3    x4    x5    x6    x7    x8    x9
#>    <bnr> <tme> <cont> <bnr> <bnr> <bnr> <bnr> <bnr> <bnr> <bnr> <bnr> <bnr>
#>  1     0  56.1  0.933     0     0     1     0     1     0     0     1     0
#>  2     1  54.1 -0.714     0     0     0     0     0     0     0     0     0
#>  3     0  83.4 -0.492     0     0     0     0     0     0     0     0     0
#>  4     0  86.1  -0.98     1     1     0     0     0     0     0     1     1
#>  5     0    83   3.28     0     0     0     0     1     0     0     0     0
#>  6     0  83.9  -1.13     0     0     0     0     0     0     0     0     0
#>  7     0  80.2  0.963     0     0     1     0     1     0     0     0     0
#>  8     0  53.6  -0.74     0     0     0     0     0     0     0     0     1
#>  9     0  49.9  0.255     1     1     1     0     1     0     0     0     1
#> 10     1  74.3 -0.526     0     0     1     0     0     0     1     0     0
#> # … with 90 more rows, and 1 more variable: x10 <bnry>

Selecting columns based on data type:

dt %>% select_if(is_binary)
#> # A tibble: 100 x 11
#>        y1     x1     x2     x3     x4     x5     x6     x7     x8     x9    x10
#>    <bnry> <bnry> <bnry> <bnry> <bnry> <bnry> <bnry> <bnry> <bnry> <bnry> <bnry>
#>  1      0      0      0      1      0      1      0      0      1      0      0
#>  2      1      0      0      0      0      0      0      0      0      0      0
#>  3      0      0      0      0      0      0      0      0      0      0      0
#>  4      0      1      1      0      0      0      0      0      1      1      0
#>  5      0      0      0      0      0      1      0      0      0      0      1
#>  6      0      0      0      0      0      0      0      0      0      0      1
#>  7      0      0      0      1      0      1      0      0      0      0      0
#>  8      0      0      0      0      0      0      0      0      0      1      0
#>  9      0      1      1      1      0      1      0      0      0      1      0
#> 10      1      0      0      1      0      0      0      1      0      0      0
#> # … with 90 more rows

Selecting columns based on context:

dt %>% select_if(is_outcome)
#> # A tibble: 100 x 3
#>        y1     y2     y3
#>    <bnry> <tmev> <cont>
#>  1      0   56.1  0.933
#>  2      1   54.1 -0.714
#>  3      0   83.4 -0.492
#>  4      0   86.1  -0.98
#>  5      0     83   3.28
#>  6      0   83.9  -1.13
#>  7      0   80.2  0.963
#>  8      0   53.6  -0.74
#>  9      0   49.9  0.255
#> 10      1   74.3 -0.526
#> # … with 90 more rows
